Tree Phenology Assignment
…
Show code

station_list_Rochester

# A tibble: 25 × 10
   chillR_code STATION.NAME             CTRY    Lat  Long  BEGIN    END Distance
   <chr>       <chr>                    <chr> <dbl> <dbl>  <int>  <int>    <dbl>
 1 72529014768 GREATER ROCHESTER INTER… US     43.1 -77.7 1.97e7 2.02e7     7.11
 2 99999914768 ROCHESTER MONROE CO ARPT US     43.1 -77.7 1.95e7 1.97e7     7.25
 3 72529599999 ROCHESTER COAST GUARD L… US     43.2 -77.6 1.98e7 2.00e7    11.1 
 4 99800999999 ROCHESTER                US     43.2 -77.6 2.01e7 2.02e7    11.2 
 5 99826799999 ROCHESTER                US     43.3 -77.6 2.01e7 2.02e7    13.4 
 6 99719099999 LAKE ONTARIO BUOY - 20N… US     43.6 -77.4 2.01e7 2.01e7    54.5 
 7 72498899999 DANSVILLE MUNI           US     42.6 -77.7 2.00e7 2.00e7    65.1 
 8 72523094704 DANSVILLE/MUNICIPAL      US     42.6 -77.7 1.97e7 1.99e7    65.1 
 9 99999994704 DANSVILLE MUNI AP        US     42.6 -77.7 1.95e7 2.00e7    65.1 
10 72498894704 DANSVILLE MUNICIPAL ARPT US     42.6 -77.7 2.00e7 2.02e7    65.2 
# ℹ 15 more rows
# ℹ 2 more variables: Overlap_years <dbl>, Perc_interval_covered <dbl>
…
Rochester <- read.csv("data_New_York/Rochester_chillR_weather.csv")

Rochester_QC <- fix_weather(Rochester)$QC

Create a list of the 25 closest weather stations using the handle_gsod function

Show code

station_list <- handle_gsod(action="list_stations",
                            location=c(-77.60, 43.15),
                              time_interval=c(1990,2020))
 
station_list

# A tibble: 25 × 10
   chillR_code STATION.NAME             CTRY    Lat  Long  BEGIN    END Distance
   <chr>       <chr>                    <chr> <dbl> <dbl>  <int>  <int>    <dbl>
 1 72529014768 GREATER ROCHESTER INTER… US     43.1 -77.7 1.97e7 2.02e7     7.11
 2 99999914768 ROCHESTER MONROE CO ARPT US     43.1 -77.7 1.95e7 1.97e7     7.25
 3 72529599999 ROCHESTER COAST GUARD L… US     43.2 -77.6 1.98e7 2.00e7    11.1 
 4 99800999999 ROCHESTER                US     43.2 -77.6 2.01e7 2.02e7    11.2 
 5 99826799999 ROCHESTER                US     43.3 -77.6 2.01e7 2.02e7    13.4 
 6 99719099999 LAKE ONTARIO BUOY - 20N… US     43.6 -77.4 2.01e7 2.01e7    54.5 
 7 72498899999 DANSVILLE MUNI           US     42.6 -77.7 2.00e7 2.00e7    65.1 
 8 72523094704 DANSVILLE/MUNICIPAL      US     42.6 -77.7 1.97e7 1.99e7    65.1 
 9 99999994704 DANSVILLE MUNI AP        US     42.6 -77.7 1.95e7 2.00e7    65.1 
10 72498894704 DANSVILLE MUNICIPAL ARPT US     42.6 -77.7 2.00e7 2.02e7    65.2 
# ℹ 15 more rows
# ℹ 2 more variables: Overlap_years <dbl>, Perc_interval_covered <dbl>
…
